<svg width="600" height="440" viewBox="0 0 600 440" fill="none" xmlns="http://www.w3.org/2000/svg">
<path fill-rule="evenodd" clip-rule="evenodd" d="M254.834 388.75C232.867 388.75 215.062 370.496 215.062 347.984C215.062 325.464 232.867 307.214 254.834 307.214C276.797 307.214 294.609 325.464 294.609 347.984C294.605 370.496 276.797 388.75 254.834 388.75ZM264.083 257.96V220.562H222.395L236.545 257.96H264.083ZM264.083 189.983V154.713H197.482L210.828 189.986L264.083 189.983ZM293.911 154.713V189.986H328.873V154.713H293.911ZM293.911 220.561V257.959H328.873V220.561H293.911ZM393.667 257.959V220.561H358.709V257.959H393.667ZM393.667 189.982V154.712H358.709V189.985L393.667 189.982ZM423.496 154.712V189.985H470.923L485.035 154.712H423.496ZM423.496 220.56V257.958H443.736L458.694 220.56H423.496ZM185.944 124.189C186.36 124.154 186.783 124.134 187.21 124.134H497.258L502.095 112.048C505.212 104.267 513.897 100.552 521.496 103.748C529.088 106.943 532.712 115.85 529.595 123.635L467.907 277.845C466.002 284.04 460.354 288.536 453.681 288.536H226.383V288.489C220.423 288.485 214.798 284.786 212.519 278.743L155.648 128.423L76.2192 77.2195C69.268 72.7351 67.1796 63.3215 71.5585 56.1995C75.9335 49.0784 85.1175 46.9378 92.0658 51.4222L175.652 105.305C178.587 107.192 180.648 109.961 181.731 113.067L185.944 124.189ZM419.466 388.749C397.503 388.749 379.695 370.495 379.695 347.983C379.695 325.463 397.503 307.213 419.466 307.213C441.437 307.213 459.238 325.463 459.238 347.983C459.238 370.495 441.437 388.749 419.466 388.749Z" fill="#1C1E21"/>
</svg>
